<?xml version="1.0"?>
<robot xmlns:xacro="http://www.ros.org/wiki/xacro" name="common_properties">
    
    <!-- Materials for RVIZ -->
    <material name="black">
        <color rgba="0 0 0 1"/>
    </material>
    <material name="red">
        <color rgba="0.8 0 0 1"/>
    </material>
    <material name="green">
        <color rgba="0 0.8 0 1"/>
    </material>
    
    
    <xacro:property name="body_radius" value="0.25" />
    <xacro:property name="body_length" value="0.98" />
    <xacro:property name="body_colour" value="Black" />
    <xacro:property name="body_mass" value="1000.0" />
    
    <xacro:property name="tentacle_element_depth" value="-0.005" />
    <xacro:property name="maximum_angle" value="0.6" />
    
    <!-- Phisical Joints Dimensions -->
    <xacro:property name="tentacle_element_radius" value="0.0375" />
    <xacro:property name="tentacle_element_length" value="0.0697" />
    <xacro:property name="tentacle_element_length_displacement" value="0.01082" />
    <xacro:property name="tentacle_element_colour" value="Black" />
    <xacro:property name="tentacle_element_mass" value="1.0" />
    
    <!-- Phisical Connector Dimensions -->
    <xacro:property name="tentacle_connector_element_radius" value="0.03266" />
    <xacro:property name="tentacle_connector_element_length" value="0.0635" />
    <xacro:property name="tentacle_connector_element_length_displacement" value="0.02881" />
    <xacro:property name="tentacle_connector_element_colour" value="Red" />
    
    <!-- Virtual Joint Dimensions -->
    <xacro:property name="tentacle_joint_radius" value="0.01" />
    <xacro:property name="tentacle_joint_length" value="0.0001" />
    <xacro:property name="tentacle_joint_mass" value="0.01" />
    
    <!-- Claw Dimensions -->
    <xacro:property name="claw_base_x_size" value="0.09" />
    <xacro:property name="claw_base_y_size" value="0.09" />
    <xacro:property name="claw_base_z_size" value="0.09" />
    <xacro:property name="claw_base_mass" value="0.01" />
    
    <xacro:property name="claw_cross_x_size" value="0.095" />
    <xacro:property name="claw_cross_y_size" value="0.095" />
    <xacro:property name="claw_cross_z_size" value="0.0512" />
    <xacro:property name="claw_cross_z_displacement" value="0.08185" />
    
    <xacro:property name="claw_finguer_base_x_size" value="0.14" />
    <xacro:property name="claw_finguer_base_y_size" value="0.02" />
    <xacro:property name="claw_finguer_base_z_size" value="0.0325" />
    <xacro:property name="claw_finguer_base_x_displacement" value="0.0313" />
    <xacro:property name="claw_finguer_base_y_displacement" value="0.0313" />
    <xacro:property name="claw_finguer_base_z_displacement" value="0.02" />
    <xacro:property name="claw_finguer_mass" value="0.01" />
    
    <xacro:property name="claw_finguer_tip_x_size" value="0.114" />
    <xacro:property name="claw_finguer_tip_y_size" value="0.02" />
    <xacro:property name="claw_finguer_tip_z_size" value="0.0271" />
    <xacro:property name="claw_finguer_tip_x_displacement" value="0.1163" />
    <xacro:property name="claw_finguer_tip_z_displacement" value="0.0025" />
    
    
    <xacro:property name="claw_finguer_base_max_angle" value="0.0" />
    <xacro:property name="claw_finguer_base_min_angle" value="-1.57" />
    <xacro:property name="claw_finguer_tip_max_angle" value="0.0" />
    <xacro:property name="claw_finguer_tip_min_angle" value="-0.9" />
    
    <!-- Arms of Body -->
    <xacro:property name="arm_x_size" value="0.114" />
    <xacro:property name="arm_y_size" value="0.02" />
    <xacro:property name="arm_z_size" value="0.0271" />
    
    <xacro:property name="arm_to_body_joint_x_1" value="0.206422" />
    <xacro:property name="arm_to_body_joint_y_1" value="-0.090751" />
    <xacro:property name="arm_to_body_joint_z_1" value="0.716633" />
    
    <xacro:property name="arm_to_body_joint_x_2" value="0.195833" />
    <xacro:property name="arm_to_body_joint_y_2" value="-0.090751" />
    <xacro:property name="arm_to_body_joint_z_2" value="0.588148" />
    
    <xacro:property name="arm_to_body_joint_x_3" value="0.134156" />
    <xacro:property name="arm_to_body_joint_y_3" value="-0.170873" />
    <xacro:property name="arm_to_body_joint_z_3" value="0.643806" />
    
    <xacro:property name="arm_to_body_joint_x_4" value="0.126858" />
    <xacro:property name="arm_to_body_joint_y_4" value="-0.165949" />
    <xacro:property name="arm_to_body_joint_z_4" value="0.517022" />
    
    <xacro:property name="arm_to_body_joint_x_5" value="0.19324" />
    <xacro:property name="arm_to_body_joint_y_5" value="-0.084732" />
    <xacro:property name="arm_to_body_joint_z_5" value="0.462157" />
    
    <xacro:property name="arm_to_body_joint_roll_L" value="1.251401" />
    <xacro:property name="arm_to_body_joint_pitch_L" value="0.9477138" />
    <xacro:property name="arm_to_body_joint_yaw_L" value="3.68264 " />
    
    <xacro:property name="arm_to_body_joint_roll_R" value="1.339264439" />
    <xacro:property name="arm_to_body_joint_pitch_R" value="-1.084709913" />
    <xacro:property name="arm_to_body_joint_yaw_R" value="-0.57107173" />
    
    <xacro:property name="arm_max_angle" value="0.0" />
    <xacro:property name="arm_min_angle" value="-1.57" />
    
    <!-- Eyes -->
    <xacro:property name="eye_mass" value="0.01" />
     <xacro:property name="eye_joint_yaw" value="0.3892084" />
     
    <xacro:property name="central_eye_joint_z" value="0.937785" />
    
    <xacro:property name="lateral_eye_right_joint_x" value="-0.341931" />
    <xacro:property name="lateral_eye_right_joint_y" value="0.040664" />
    <xacro:property name="lateral_eye_right_joint_z" value="0.88037" />
    
    <xacro:macro name="box_inertia" params="m x y z">
        <inertia  
              ixx="${m*(y*y+z*z)/12}" 
        			ixy = "0" 
        			ixz = "0"
        			iyy="${m*(x*x+z*z)/12}" 
        			iyz = "0"
        			izz="${m*(x*x+z*z)/12}"
        />
    </xacro:macro>

    <xacro:property name="body_ixx" value="${body_mass * (body_radius*body_radius / 4.0 + body_length*body_length / 12.0)}" />
    <xacro:property name="body_iyy" value="${body_mass * (body_radius*body_radius / 4.0 + body_length*body_length / 12.0)}" />
    <xacro:property name="body_izz" value="${body_mass / 2.0 * body_radius*body_radius}" />

    <xacro:property name="tentacle_element_ixx" value="${tentacle_element_mass * (tentacle_element_radius*tentacle_element_radius / 4.0 + tentacle_element_length*tentacle_element_length / 12.0)}" />
    <xacro:property name="tentacle_element_iyy" value="${tentacle_element_mass * (tentacle_element_radius*tentacle_element_radius / 4.0 + tentacle_element_length*tentacle_element_length / 12.0)}" />
    <xacro:property name="tentacle_element_izz" value="${tentacle_element_mass/2.0 * tentacle_element_radius*tentacle_element_radius}" />

    <xacro:property name="tentacle_joint_ixx" value="${tentacle_joint_mass * (tentacle_joint_radius*tentacle_joint_radius/ 4.0 + tentacle_joint_length*tentacle_joint_length / 12.0)}" />
    <xacro:property name="tentacle_joint_iyy" value="${tentacle_joint_mass * (tentacle_joint_radius*tentacle_joint_radius / 4.0 + tentacle_joint_length*tentacle_joint_length / 12.0)}" />
    <xacro:property name="tentacle_joint_izz" value="${tentacle_joint_mass/2.0 * tentacle_joint_radius*tentacle_joint_radius}" />

    <gazebo>
        <plugin name="gazebo_ros_control" filename="libgazebo_ros_control.so">
            <robotNamespace>/tentacle</robotNamespace>
        </plugin>
    </gazebo>
    

</robot>