<?xml version="1.0"?>
<robot xmlns:xacro="http://www.ros.org/wiki/xacro" name="tentacle_1">
    
    
    <!-- MACROS -->
    <xacro:property name="t1_pos_x" value="0.01" />
    <xacro:property name="t1_pos_y" value="-0.03" />
    <xacro:property name="t1_pos_z" value="${tentacle_element_depth}" />
    
    <property name="tentacle1name" value= "t1" />
    
    <xacro:macro name="tentacle_1_loop" params="links_qty">
        
        <xacro:if value="${links_qty > 0}">
            <xacro:tentacle_1_body_link base_name="${tentacle1name}_${links_qty-1}" parent_name="${tentacle1name}_${links_qty}" link_number="${links_qty-1}"/>
            <xacro:tentacle_1_loop links_qty="${links_qty-1}" />

        </xacro:if>
    </xacro:macro>
    
  
    <xacro:tentacle_1_loop links_qty="${NumberOfElements}" />
  
    
    <xacro:macro name="tentacle_1_body_link" params="base_name parent_name link_number">
        
        <link name="${base_name}_aux">
            <inertial>
                <origin xyz="0 0 ${tentacle_joint_length/2.0}" rpy="0 0 0"/>
                <mass value="${tentacle_joint_mass}" />
                <inertia ixx="${tentacle_joint_ixx}" ixy="0.0" ixz="0.0" iyy="${tentacle_joint_iyy}" iyz="0.0" izz="${tentacle_joint_izz}"/>
            </inertial>
            <collision>
                <origin xyz="0 0 ${tentacle_joint_length/2.0}" rpy="0 0 0"/>
                <geometry>
                    <cylinder radius="${tentacle_joint_radius}" length="${tentacle_joint_length}"/>
                </geometry>
            </collision>
            <visual>
                <origin xyz="0 0 ${tentacle_joint_length/2.0}" rpy="0 0 0"/>
                <geometry>
                    <cylinder radius="${tentacle_joint_radius}" length="${tentacle_joint_length}"/>
                </geometry>
            </visual>
    	</link>
    	
    	<gazebo reference="${base_name}_aux">
            <kp>1000000000.0</kp>
            <kd>1000000000.0</kd>
            <mu1>10.0</mu1>
            <mu2>10.0</mu2>
            <maxVel>0.2</maxVel>
            <material>Gazebo/Black</material>
            <self_collide>0</self_collide>
            
        </gazebo>
    	
    	
        <link name="${base_name}">
     	    <inertial>
                <origin xyz="0 0 ${(tentacle_element_length/2.0)+tentacle_element_length_displacement}" rpy="0 0 0"/>
                <mass value="${tentacle_element_mass}" />
                <inertia ixx="${tentacle_element_ixx}" ixy="0.0" ixz="0.0" iyy="${tentacle_element_iyy}" iyz="0.0" izz="${tentacle_element_izz}"/>
            </inertial>
            <collision>
                <origin xyz="0 0 ${(tentacle_element_length/2.0)+tentacle_element_length_displacement}" rpy="0 0 0"/>
                <geometry>
                    <cylinder radius="${tentacle_element_radius}" length="${tentacle_element_length}"/>
                </geometry>
            </collision>
            <visual>
                <origin xyz="0 0 0" rpy="0 0 0"/>
                <geometry>
                    <!--<mesh filename="package://sentinel_description/meshes/Tentacles/Sentinel_Schakel_Grey.stl"/>-->
                    <mesh filename="package://sentinel_description/meshes/Tentacles/Sentinel_Schakel_Grey_wt.dae"/>
                </geometry>
                <material name="black"/>
            </visual>
    	</link>
    	
    	<gazebo reference="${base_name}">
            <kp>1000000000.0</kp>
            <kd>1000000000.0</kd>
            <mu1>10.0</mu1>
            <mu2>10.0</mu2>
            <maxVel>0.2</maxVel>
            <material>Gazebo/${tentacle_element_colour}</material>
            <self_collide>0</self_collide>
            
        </gazebo>
        
        
        <!-- Second element that connects -->
        
        <link name="${base_name}_aux_connector">
            <inertial>
                <origin xyz="0 0 ${tentacle_joint_length/2.0}" rpy="0 0 0"/>
                <mass value="${tentacle_joint_mass}" />
                <inertia ixx="${tentacle_joint_ixx}" ixy="0.0" ixz="0.0" iyy="${tentacle_joint_iyy}" iyz="0.0" izz="${tentacle_joint_izz}"/>
            </inertial>
            <collision>
                <origin xyz="0 0 ${tentacle_joint_length/2.0}" rpy="0 0 0"/>
                <geometry>
                    <cylinder radius="${tentacle_joint_radius}" length="${tentacle_joint_length}"/>
                </geometry>
            </collision>
            <visual>
                <origin xyz="0 0 ${tentacle_joint_length/2.0}" rpy="0 0 0"/>
                <geometry>
                    <cylinder radius="${tentacle_joint_radius}" length="${tentacle_joint_length}"/>
                </geometry>
            </visual>
    	</link>
    	
    	<gazebo reference="${base_name}_aux_connector">
            <kp>1000000000.0</kp>
            <kd>1000000000.0</kd>
            <mu1>10.0</mu1>
            <mu2>10.0</mu2>
            <maxVel>0.2</maxVel>
            <material>Gazebo/Black</material>
            <self_collide>0</self_collide>
        </gazebo>
    	
    	
        <link name="${base_name}_connector">
     	    <inertial>
                <origin xyz="0 0 ${(tentacle_connector_element_length/2.0)+tentacle_connector_element_length_displacement}" rpy="0 0 0"/>
                <mass value="${tentacle_element_mass}" />
                <inertia ixx="${tentacle_element_ixx}" ixy="0.0" ixz="0.0" iyy="${tentacle_element_iyy}" iyz="0.0" izz="${tentacle_element_izz}"/>
            </inertial>
            <collision>
                <origin xyz="0 0 ${(tentacle_connector_element_length/2.0)+tentacle_connector_element_length_displacement}" rpy="0 0 0"/>
                <geometry>
                    <cylinder radius="${tentacle_connector_element_radius}" length="${tentacle_connector_element_length}"/>
                </geometry>
            </collision>
            <visual>
                <origin xyz="0 0 0" rpy="0 0 0"/>
                <geometry>
                    <!--<mesh filename="package://sentinel_description/meshes/Tentacles/Sentinel_Schakel-knobbels_Red.stl"/>-->
                    <mesh filename="package://sentinel_description/meshes/Tentacles/Sentinel_Schakel-knobbels_Red_wt.dae"/>
                </geometry>
                <material name="red"/>
            </visual>
    	</link>
    	
    	<gazebo reference="${base_name}_connector">
            <kp>1000000000.0</kp>
            <kd>1000000000.0</kd>
            <mu1>10.0</mu1>
            <mu2>10.0</mu2>
            <maxVel>0.2</maxVel>
            <material>Gazebo/${tentacle_connector_element_colour}</material>
            <self_collide>0</self_collide>
        </gazebo>
        
        
        <!-- We add to the Origin displacement a margin for flex due to self colisions for parent_name and base_name-->
        <joint name="${base_name}_aux_joint" type="revolute">
            <parent link="${parent_name}_connector"/>
        	<child link="${base_name}_aux"/>
            <origin xyz="0 0 ${tentacle_connector_element_length}" rpy="0 0 0"/>
            <limit lower="-${maximum_angle}" upper="${maximum_angle}" effort="100.0" velocity="0.5"/>
            <axis xyz="1 0 0"/>
    	</joint>
    	
        <joint name="${base_name}_joint" type="revolute">
    	    <parent link="${base_name}_aux"/>
        	<child link="${base_name}"/>
            <origin xyz="0 0 0" rpy="0 0 0"/>
            <limit lower="-${maximum_angle}" upper="${maximum_angle}" effort="100.0" velocity="0.5"/>
            <axis xyz="0 1 0"/>
    	</joint>
	    
        <!-- We add to the Origin displacement a margin for flex due to self colisions for parent_name and base_name-->
        <joint name="${base_name}_aux_connector_joint" type="revolute">
            <parent link="${base_name}"/>
        	<child link="${base_name}_aux_connector"/>
            <origin xyz="0 0 ${tentacle_element_length}" rpy="0 0 0"/>
            <limit lower="-${maximum_angle}" upper="${maximum_angle}" effort="100.0" velocity="0.5"/>
            <axis xyz="1 0 0"/>
    	</joint>
    	
        <joint name="${base_name}_connector_joint" type="revolute">
    	    <parent link="${base_name}_aux_connector"/>
        	<child link="${base_name}_connector"/>
            <origin xyz="0 0 0" rpy="0 0 0"/>
            <limit lower="-${maximum_angle}" upper="${maximum_angle}" effort="100.0" velocity="0.5"/>
            <axis xyz="0 1 0"/>
    	</joint>
    	
    	<transmission name="tran${base_name}_aux">
            <type>transmission_interface/SimpleTransmission</type>
            <joint name="${base_name}_aux_joint">
                <hardwareInterface>hardware_interface/EffortJointInterface</hardwareInterface>
            </joint>
            <actuator name="motor${base_name}_aux">
                <hardwareInterface>hardware_interface/EffortJointInterface</hardwareInterface>
                <mechanicalReduction>1</mechanicalReduction>
            </actuator>
        </transmission>
        
        <transmission name="tran${base_name}">
            <type>transmission_interface/SimpleTransmission</type>
            <joint name="${base_name}_joint">
                <hardwareInterface>hardware_interface/EffortJointInterface</hardwareInterface>
            </joint>
            <actuator name="motor${base_name}">
                <hardwareInterface>hardware_interface/EffortJointInterface</hardwareInterface>
                <mechanicalReduction>1</mechanicalReduction>
            </actuator>
        </transmission>
        
	    <transmission name="tran${base_name}_aux_connector">
            <type>transmission_interface/SimpleTransmission</type>
            <joint name="${base_name}_aux_connector_joint">
                <hardwareInterface>hardware_interface/EffortJointInterface</hardwareInterface>
            </joint>
            <actuator name="motor${base_name}_aux_connector">
                <hardwareInterface>hardware_interface/EffortJointInterface</hardwareInterface>
                <mechanicalReduction>1</mechanicalReduction>
            </actuator>
        </transmission>
        
        <transmission name="tran${base_name}_connector">
            <type>transmission_interface/SimpleTransmission</type>
            <joint name="${base_name}_connector_joint">
                <hardwareInterface>hardware_interface/EffortJointInterface</hardwareInterface>
            </joint>
            <actuator name="motor${base_name}_connector">
                <hardwareInterface>hardware_interface/EffortJointInterface</hardwareInterface>
                <mechanicalReduction>1</mechanicalReduction>
            </actuator>
        </transmission>
        
        
    	
    </xacro:macro>


    <xacro:claw tentacle_tcp_name="${tentacle1name}_0_connector" tentacle_base_name="${tentacle1name}"/>

    
	<!-- * * * Link Definitions * * * -->
	<link name="${tentacle1name}_${NumberOfElements}">
     	    <inertial>
                <origin xyz="0 0 ${(tentacle_element_length/2.0)+tentacle_element_length_displacement}" rpy="0 0 0"/>
                <mass value="${tentacle_element_mass}" />
                <inertia ixx="${tentacle_element_ixx}" ixy="0.0" ixz="0.0" iyy="${tentacle_element_iyy}" iyz="0.0" izz="${tentacle_element_izz}"/>
            </inertial>
            <collision>
                <origin xyz="0 0 ${(tentacle_element_length/2.0)+tentacle_element_length_displacement}" rpy="0 0 0"/>
                <geometry>
                    <cylinder radius="${tentacle_element_radius}" length="${tentacle_element_length}"/>
                </geometry>
            </collision>
            <visual>
                <origin xyz="0 0 0" rpy="0 0 0"/>
                <geometry>
                    <!--<mesh filename="package://sentinel_description/meshes/Tentacles/Sentinel_Schakel_Grey.stl"/>-->
                    <mesh filename="package://sentinel_description/meshes/Tentacles/Sentinel_Schakel_Grey_wt.dae"/>
                </geometry>
                <material name="black"/>
            </visual>
	</link>


    <gazebo reference="${tentacle1name}_${NumberOfElements}">
        <kp>100000000000000.0</kp>
        <kd>100000000000000.0</kd>
        <mu1>10.0</mu1>
        <mu2>10.0</mu2>
        <maxVel>0.2</maxVel>
        <material>Gazebo/${tentacle_element_colour}</material>
        <self_collide>0</self_collide>
        
    </gazebo>
    

    <joint name="body_t1_joint" type="fixed">
        <parent link="body"/>
        <child link="${tentacle1name}_${NumberOfElements}"/>
        <origin xyz="${t1_pos_x} ${t1_pos_y} ${t1_pos_z}" rpy="3.14 0 0"/>
    </joint>
    
    <!-- Connector -->
    <link name="${tentacle1name}_${NumberOfElements}_connector">
     	    <inertial>
                <origin xyz="0 0 ${(tentacle_element_length/2.0)+tentacle_connector_element_length_displacement}" rpy="0 0 0"/>
                <mass value="${tentacle_element_mass}" />
                <inertia ixx="${tentacle_element_ixx}" ixy="0.0" ixz="0.0" iyy="${tentacle_element_iyy}" iyz="0.0" izz="${tentacle_element_izz}"/>
            </inertial>
            <collision>
                <origin xyz="0 0 ${(tentacle_element_length/2.0)+tentacle_connector_element_length_displacement}" rpy="0 0 0"/>
                <geometry>
                    <cylinder radius="${tentacle_connector_element_radius}" length="${tentacle_connector_element_length}"/>
                </geometry>
            </collision>
            <visual>
                <origin xyz="0 0 0" rpy="0 0 0"/>
                <geometry>
                    <!--<mesh filename="package://sentinel_description/meshes/Tentacles/Sentinel_Schakel-knobbels_Red.stl"/>-->
                    <mesh filename="package://sentinel_description/meshes/Tentacles/Sentinel_Schakel-knobbels_Red_wt.dae"/>
                </geometry>
                <material name="red"/>
            </visual>
	</link>


    <gazebo reference="${tentacle1name}_${NumberOfElements}_connector">
        <kp>100000000000000.0</kp>
        <kd>100000000000000.0</kd>
        <mu1>10.0</mu1>
        <mu2>10.0</mu2>
        <maxVel>0.2</maxVel>
        <material>Gazebo/${tentacle_connector_element_colour}</material>
        <self_collide>0</self_collide>
    </gazebo>
    

    <joint name="body_t1_connector_joint" type="fixed">
        <parent link="${tentacle1name}_${NumberOfElements}"/>
        <child link="${tentacle1name}_${NumberOfElements}_connector"/>
        <origin xyz="0 0 ${tentacle_element_length}" rpy="0 0 0"/>
    </joint>

</robot>