<?xml version="1.0" encoding="utf-8"?>
<COLLADA xmlns="http://www.collada.org/2005/11/COLLADASchema" version="1.4.1">
  <asset>
    <contributor>
      <author>Blender User</author>
      <authoring_tool>Blender 2.79.0</authoring_tool>
    </contributor>
    <created>2018-03-09T20:55:29</created>
    <modified>2018-03-09T20:55:29</modified>
    <unit name="meter" meter="1"/>
    <up_axis>Z_UP</up_axis>
  </asset>
  <library_images>
    <image id="dark_metal_lowres_jpg" name="dark_metal_lowres_jpg">
      <init_from>dark_metal_lowres.jpg</init_from>
    </image>
  </library_images>
  <library_effects>
    <effect id="Material_001-effect">
      <profile_COMMON>
        <newparam sid="dark_metal_lowres_jpg-surface">
          <surface type="2D">
            <init_from>dark_metal_lowres_jpg</init_from>
          </surface>
        </newparam>
        <newparam sid="dark_metal_lowres_jpg-sampler">
          <sampler2D>
            <source>dark_metal_lowres_jpg-surface</source>
          </sampler2D>
        </newparam>
        <technique sid="common">
          <phong>
            <emission>
              <color sid="emission">0 0 0 1</color>
            </emission>
            <ambient>
              <color sid="ambient">0 0 0 1</color>
            </ambient>
            <diffuse>
              <texture texture="dark_metal_lowres_jpg-sampler"/>
            </diffuse>
            <specular>
              <color sid="specular">0.5 0.5 0.5 1</color>
            </specular>
            <shininess>
              <float sid="shininess">50</float>
            </shininess>
            <index_of_refraction>
              <float sid="index_of_refraction">1</float>
            </index_of_refraction>
          </phong>
        </technique>
      </profile_COMMON>
    </effect>
  </library_effects>
  <library_materials>
    <material id="Material_001-material" name="Material_001">
      <instance_effect url="#Material_001-effect"/>
    </material>
  </library_materials>
  <library_geometries>
    <geometry id="Head_Eye_Sentinel_Head_Ooglid_center-mesh" name="Head Eye Sentinel Head Ooglid center">
      <mesh>
        <source id="Head_Eye_Sentinel_Head_Ooglid_center-mesh-positions">
          <float_array id="Head_Eye_Sentinel_Head_Ooglid_center-mesh-positions-array" count="264">0.03597414 0.03601598 -8.85796e-5 0.03597414 0.03602278 0.09460574 -4.32129e-5 0.05094164 0.09460479 -4.32412e-5 0.05093491 -8.9207e-5 0.0359742 -0.03601229 0.09461098 0.0359742 -0.03601908 -8.558e-5 -4.32412e-5 -0.05093795 -8.49523e-5 -4.32129e-5 -0.05093115 0.094612 0.05089312 5.2487e-6 0.09460836 0.05089312 -1.52174e-6 -8.70995e-5 -0.03606057 0.03602278 0.09460574 -0.03606063 0.03601598 -8.85796e-5 -0.03606069 -0.03601908 -8.558e-5 -0.03606063 -0.03601229 0.09461098 -0.05097955 5.2487e-6 0.09460836 -0.05097961 -1.52174e-6 -8.70995e-5 0.05255985 0.05260723 0.06997251 0.0743488 4.1353e-6 0.06997436 0.07671886 3.96767e-6 0.06696367 0.05423575 0.05428296 0.06696158 -4.32129e-5 0.07439613 0.0699712 -4.32129e-5 0.07676613 0.06696063 0.05255985 -0.05259889 0.06997698 -4.32129e-5 -0.07438784 0.06997752 -4.32129e-5 -0.07675814 0.06696707 0.05423575 -0.05427503 0.06696617 0.05022752 0.05027502 0.07200407 0.07105034 4.18466e-6 0.0720061 -4.32129e-5 0.07109767 0.07200312 0.05022752 -0.05026662 0.07200819 -4.32129e-5 -0.07108944 0.0720092 0.04481101 0.04486 0.08936756 0.06339031 5.53275e-6 0.08936995 0.07077062 4.24567e-6 0.07244837 0.05002963 0.05007714 0.07244634 -4.32129e-5 0.06343913 0.08936637 -4.32129e-5 0.070818 0.07244551 0.04481106 -0.04484874 0.08937233 -4.32129e-5 -0.06342792 0.08937311 -4.32129e-5 -0.07080966 0.07245159 0.05002969 -0.05006879 0.07245039 0.04132437 0.04137295 0.09624814 0.05845946 5.27105e-6 0.09625083 -4.32129e-5 0.05850797 0.09624713 0.04132437 -0.04136246 0.09625321 -4.32129e-5 -0.05849742 0.09625416 0.03787237 0.03792095 0.09789019 0.0535776 5.27198e-6 0.09789294 -4.32129e-5 0.05362612 0.09788918 0.03787243 -0.0379104 0.09789568 -4.32129e-5 -0.05361557 0.09789669 0.03631252 0.03636121 0.09789055 0.05137163 5.27198e-6 0.09789294 -4.32129e-5 0.05142033 0.09788942 0.03631252 -0.03635048 0.09789532 -4.32129e-5 -0.0514096 0.09789645 -0.05264627 0.05260723 0.06997251 -0.05432218 0.05428296 0.06696158 -0.07680529 3.96767e-6 0.06696367 -0.07443523 4.1353e-6 0.06997436 -0.05264627 -0.05259889 0.06997698 -0.05432218 -0.05427503 0.06696617 -0.05031394 0.05027502 0.07200407 -0.07113677 4.18466e-6 0.0720061 -0.05031394 -0.05026662 0.07200819 -0.04489743 0.04486 0.08936756 -0.05011606 0.05007714 0.07244634 -0.07085704 4.24567e-6 0.07244837 -0.06347674 5.53275e-6 0.08936995 -0.04489749 -0.04484874 0.08937233 -0.05011612 -0.05006879 0.07245039 -0.0414108 0.04137295 0.09624814 -0.05854588 5.27105e-6 0.09625083 -0.0414108 -0.04136246 0.09625321 -0.0379588 0.03792095 0.09789019 -0.05366402 5.27198e-6 0.09789294 -0.03795886 -0.0379104 0.09789568 -0.03639894 0.03636121 0.09789055 -0.05145806 5.27198e-6 0.09789294 -0.03639894 -0.03635048 0.09789532 -0.07680529 1.16405e-6 -8.72577e-5 -0.05432218 -0.05427783 -8.48131e-5 -0.05432218 0.05428016 -8.93593e-5 -4.3213e-5 0.07676333 -9.03121e-5 0.05423575 0.05428016 -8.93593e-5 0.07671886 1.16405e-6 -8.72577e-5 0.05423575 -0.05427783 -8.48131e-5 -4.3213e-5 -0.07676094 -8.38603e-5</float_array>
          <technique_common>
            <accessor source="#Head_Eye_Sentinel_Head_Ooglid_center-mesh-positions-array" count="88" stride="3">
              <param name="X" type="float"/>
              <param name="Y" type="float"/>
              <param name="Z" type="float"/>
            </accessor>
          </technique_common>
        </source>
        <source id="Head_Eye_Sentinel_Head_Ooglid_center-mesh-normals">
          <float_array id="Head_Eye_Sentinel_Head_Ooglid_center-mesh-normals-array" count="525">-0.3826831 -0.9238798 6.6286e-5 -0.3826829 -0.9238798 6.62862e-5 -0.3826828 0.9238798 -6.5969e-5 -0.3826827 0.9238799 -6.59057e-5 -0.9238801 0.3826823 -2.70721e-5 -0.9238801 0.3826825 -2.70718e-5 0.382683 -0.9238798 6.60337e-5 0.382683 -0.9238797 6.6034e-5 -0.9238797 -0.3826832 2.76085e-5 -0.9238796 -0.3826836 2.76397e-5 0.3826828 0.9238799 -6.6221e-5 0.3826828 0.9238798 -6.62213e-5 0.9238795 -0.3826836 2.70721e-5 0.9238796 -0.3826833 2.70882e-5 0.92388 0.3826825 -2.76237e-5 0.9238799 0.3826828 -2.76397e-5 0.7471706 0.3095085 0.5881672 0.7471792 0.3095147 0.5881529 0.309489 0.747209 0.5881288 0.3094757 0.7471653 0.5881912 0.309475 -0.7471204 0.5882485 0.3094905 -0.7471517 0.5882008 0.7471823 -0.309463 0.5881762 0.7471662 -0.309459 0.5881989 0.5125088 0.2123191 0.8320189 0.5124689 0.2123022 0.8320477 0.2122677 0.5125063 0.8320336 0.2122784 0.5125339 0.8320137 0.2122992 -0.5124908 0.832035 0.2122526 -0.5124072 0.8320984 0.5124277 -0.2122208 0.832094 0.5125074 -0.2122469 0.8320382 0.85693 0.3549708 0.3737202 0.8569287 0.3549674 0.3737264 0.3549501 0.856954 0.3736846 0.3549531 0.8569471 0.3736978 0.3549456 -0.8569022 0.3738081 0.3549489 -0.8569037 0.3738012 0.8569288 -0.354931 0.373761 0.8569231 -0.3549335 0.3737716 0.7703373 0.3191208 0.5520348 0.7703191 0.3191052 0.5520692 0.3190655 0.7703278 0.5520801 0.3190676 0.7703344 0.5520696 0.3191113 -0.7703698 0.551995 0.3191019 -0.7703614 0.5520119 0.770368 -0.3190663 0.5520234 0.7703644 -0.3190653 0.5520291 0.3160685 0.1309866 0.9396506 0.3160252 0.1309644 0.9396682 0.130902 0.3160842 0.9396571 0.1308967 0.3160709 0.9396623 0.1309759 -0.3161408 0.9396278 0.1309623 -0.3161209 0.9396364 0.3161851 -0.1308992 0.9396235 0.3160723 -0.1308678 0.9396659 0 6.55792e-5 1 9.46489e-5 1.12136e-4 1 4.10095e-5 1.70501e-4 1 1.67034e-5 9.79535e-5 1 -8.70936e-6 1.01323e-4 1 -4.73215e-5 1.77633e-4 1 -1.1576e-4 1.12413e-4 1 0 7.25099e-5 1 -0.915627 -0.3792544 0.1333928 -0.9156256 -0.3792556 0.1333976 -0.3792663 -0.9156202 0.1334047 -0.3792684 -0.9156156 0.1334303 -0.3792607 0.9156274 0.1333706 -0.3792641 0.9156286 0.1333535 -0.9156215 0.3792735 0.1333752 -0.9156202 0.3792726 0.1333871 0.7975789 0.3303989 0.5046824 0.7976577 0.3304292 0.5045383 0.3304475 0.7977906 0.504316 0.3303595 0.7975857 0.5046977 0.3304052 -0.7976215 0.5046112 0.3304096 -0.7976645 0.5045403 0.797636 -0.330373 0.5046092 0.7976602 -0.3303714 0.5045722 -0.7471797 0.3095149 0.5881522 -0.7471706 0.3095085 0.5881672 -0.3094757 0.7471653 0.5881912 -0.3094891 0.7472091 0.5881285 -0.3094905 -0.7471516 0.5882008 -0.3094751 -0.7471204 0.5882486 -0.7471659 -0.3094588 0.5881993 -0.7471829 -0.3094635 0.5881753 -0.5124689 0.2123022 0.8320477 -0.5125078 0.2123187 0.8320196 -0.2122784 0.5125339 0.8320137 -0.2122676 0.5125062 0.8320336 -0.2122526 -0.5124072 0.8320984 -0.2122992 -0.5124909 0.832035 -0.5125067 -0.2122467 0.8320387 -0.5124277 -0.2122207 0.832094 -0.8569288 0.3549672 0.3737263 -0.8569299 0.3549711 0.3737201 -0.3549531 0.8569471 0.3736978 -0.3549501 0.8569542 0.3736845 -0.3549489 -0.8569039 0.3738008 -0.3549456 -0.8569022 0.3738081 -0.8569231 -0.3549336 0.3737715 -0.8569289 -0.3549309 0.3737608 -0.7703191 0.3191052 0.5520692 -0.7703373 0.3191208 0.5520348 -0.3190676 0.7703344 0.5520696 -0.3190655 0.7703278 0.55208 -0.3191019 -0.7703615 0.5520119 -0.3191113 -0.7703698 0.551995 -0.7703644 -0.3190653 0.5520291 -0.770368 -0.3190663 0.5520234 -0.316025 0.1309643 0.9396683 -0.3160684 0.1309864 0.9396508 -0.1308967 0.3160709 0.9396623 -0.1309019 0.316084 0.9396573 -0.1309623 -0.3161209 0.9396364 -0.1309759 -0.3161408 0.9396278 -0.3160722 -0.1308678 0.9396659 -0.3161851 -0.1308992 0.9396235 -9.46491e-5 1.12137e-4 1 0 6.55788e-5 1 -1.67035e-5 9.79538e-5 1 -4.10095e-5 1.70501e-4 1 4.73215e-5 1.77633e-4 1 8.70936e-6 1.01323e-4 1 0 7.25101e-5 1 1.1576e-4 1.12412e-4 1 0.9156257 -0.3792554 0.1333976 0.9156273 -0.3792542 0.1333906 0.3792684 -0.9156156 0.1334303 0.3792663 -0.9156202 0.1334047 0.3792641 0.9156286 0.1333534 0.3792606 0.9156272 0.1333724 0.9156206 0.3792724 0.133385 0.9156213 0.3792736 0.1333764 -0.7976644 0.330432 0.5045258 -0.7975773 0.3303982 0.5046856 -0.3303589 0.7975844 0.5047002 -0.3304475 0.7977907 0.5043161 -0.3304096 -0.7976645 0.5045403 -0.3304052 -0.7976215 0.5046113 -0.7976565 -0.3303698 0.5045791 -0.7976412 -0.3303751 0.5045999 -0.9238797 -0.3826831 1.60172e-5 -0.9238796 -0.3826833 1.60172e-5 0 -4.23759e-5 -1 -6.12245e-6 -4.12545e-5 -1 -1.13122e-6 -4.15617e-5 -1 6.12254e-6 -4.12544e-5 -1 1.13122e-6 -4.15618e-5 -1 -1.85757e-7 -4.25074e-5 -1 1.85512e-7 -4.25073e-5 -1 0 -4.55182e-5 -1 -0.9238798 0.3826829 -1.60763e-5 -0.9238796 0.3826833 -1.59877e-5 0.9238797 -0.3826832 1.60468e-5 0.9238796 -0.3826833 1.59877e-5 -0.382684 0.9238793 -3.87671e-5 -0.382684 0.9238794 -3.87724e-5 -0.3826839 -0.9238793 3.87724e-5 -0.382684 -0.9238793 3.85412e-5 0.9238798 0.3826832 -1.60172e-5 0.9238797 0.3826832 -1.60468e-5 0.382684 0.9238793 -3.8536e-5 0.3826839 0.9238794 -3.9014e-5 0.382684 -0.9238794 3.87671e-5 0.382684 -0.9238793 3.85359e-5 6.12119e-6 -4.25026e-5 -1 1.29559e-7 -4.21336e-5 -1 -6.12111e-6 -4.25027e-5 -1 -1.2907e-7 -4.21336e-5 -1 0 -4.20249e-5 -1 0 -4.20249e-5 -1 0 -4.16879e-5 -1</float_array>
          <technique_common>
            <accessor source="#Head_Eye_Sentinel_Head_Ooglid_center-mesh-normals-array" count="175" stride="3">
              <param name="X" type="float"/>
              <param name="Y" type="float"/>
              <param name="Z" type="float"/>
            </accessor>
          </technique_common>
        </source>
        <source id="Head_Eye_Sentinel_Head_Ooglid_center-mesh-map-0">
          <float_array id="Head_Eye_Sentinel_Head_Ooglid_center-mesh-map-0-array" count="1056">0.8439628 0.6950911 0.8439627 0.920953 0.7754704 0.9348621 0.7754704 0.9348621 0.7754705 0.7090011 0.8439628 0.6950911 0.4110932 0.8483601 0.4121544 0.6224972 0.509016 0.6229343 0.509016 0.6229343 0.5079548 0.8487982 0.4110932 0.8483601 0.1664536 0.9206877 0.1664536 0.6948239 0.2349458 0.6809112 0.2349458 0.6809112 0.2349458 0.9067776 0.1664536 0.9206877 0.678608 0.9348619 0.678608 0.7089999 0.7754705 0.7090011 0.7754705 0.7090011 0.7754704 0.9348621 0.678608 0.9348619 0.06959062 0.9206877 0.06959068 0.6948266 0.1664536 0.6948239 0.1664536 0.6948239 0.1664536 0.9206877 0.06959062 0.9206877 0.5079548 0.8487982 0.509016 0.6229343 0.5775728 0.6093338 0.5775728 0.6093338 0.5765116 0.8351967 0.5079548 0.8487982 0.6101156 0.9209529 0.6101156 0.6950883 0.678608 0.7089999 0.678608 0.7089999 0.678608 0.9348619 0.6101156 0.9209529 0.9664661 0.3538506 0.9664725 0.5797157 0.8696095 0.5797157 0.8696095 0.5797157 0.8696032 0.3538532 0.9664661 0.3538506 0.523846 0.1034919 0.5238447 0.2423021 0.5154002 0.2445133 0.523846 0.1034919 0.5154002 0.2445133 0.5154011 0.1012807 0.5445513 0.00533837 0.523846 0.1034919 0.5154011 0.1012807 0.5445513 0.00533837 0.5154011 0.1012807 0.5367671 0 0.7191655 0.1067692 0.7159909 0.2455443 0.7074982 0.2475692 0.7191655 0.1067692 0.7074982 0.2475692 0.7107731 0.1043727 0.5238447 0.2423021 0.5445514 0.3404555 0.536766 0.345794 0.5238447 0.2423021 0.536766 0.345794 0.5154002 0.2445133 0.1031683 0.3532236 0.007571339 0.4470254 0 0.4439476 0.1031683 0.3532236 0 0.4439476 0.1000323 0.3457939 0.2383626 0.3532239 0.1031683 0.3532236 0.1000323 0.3457939 0.2383626 0.3532239 0.1000323 0.3457939 0.2414991 0.3457939 0.00757128 0.579681 0.1031682 0.6734825 0.1000322 0.6809111 0.00757128 0.579681 0.1000322 0.6809111 0 0.5827576 0.007571339 0.4470254 0.00757128 0.579681 0 0.5827576 0.007571339 0.4470254 0 0.5827576 0 0.4439476 0.964648 0.1009465 0.9646472 0.2193093 0.9200075 0.2261954 0.964648 0.1009465 0.9200075 0.2261954 0.92001 0.09406203 0.8373711 0.6829721 0.8000125 0.6057633 0.8373711 0.5797157 0.9823043 0.0172522 0.92001 0.09406203 0.9397218 6.29969e-4 0.9005709 0.7060511 0.8902666 0.8239807 0.8451895 0.8271 0.9005709 0.7060511 0.8451895 0.8271 0.856692 0.6954495 0.9646472 0.2193093 0.9823027 0.3030045 0.9397157 0.3196285 0.9646472 0.2193093 0.9397157 0.3196285 0.9200075 0.2261954 0.983716 0.1055487 0.9837164 0.2147106 0.9646472 0.2193093 0.983716 0.1055487 0.9646472 0.2193093 0.964648 0.1009465 1 0.02836 0.983716 0.1055487 0.964648 0.1009465 1 0.02836 0.964648 0.1009465 0.9823043 0.0172522 0.9191696 0.7122336 0.9096668 0.8209962 0.8902666 0.8239807 0.9191696 0.7122336 0.8902666 0.8239807 0.9005709 0.7060511 0.9837164 0.2147106 1 0.2919 0.9823027 0.3030045 0.9837164 0.2147106 0.9823027 0.3030045 0.9646472 0.2193093 0.5989088 0.4275375 0.5268067 0.3567895 0.531449 0.3457939 0.5989088 0.4275375 0.531449 0.3457939 0.6101155 0.4229831 0.5989089 0.5275899 0.5989088 0.4275375 0.6101155 0.4229831 0.5989089 0.5275899 0.6101155 0.4229831 0.6101155 0.5321447 0.4248391 0.3567895 0.3527371 0.4275374 0.3415314 0.4229829 0.4248391 0.3567895 0.3415314 0.4229829 0.4201976 0.345794 0.5268067 0.3567895 0.4248391 0.3567895 0.4201976 0.345794 0.5268067 0.3567895 0.4201976 0.345794 0.531449 0.3457939 0.5938454 0.4295956 0.5247093 0.3617581 0.5268067 0.3567895 0.5938454 0.4295956 0.5268067 0.3567895 0.5989088 0.4275375 0.5938456 0.525532 0.5938454 0.4295956 0.5989088 0.4275375 0.5938456 0.525532 0.5989088 0.4275375 0.5989089 0.5275899 0.4269367 0.3617582 0.357801 0.4295955 0.3527371 0.4275374 0.4269367 0.3617582 0.3527371 0.4275374 0.4248391 0.3567895 0.5247093 0.3617581 0.4269367 0.3617582 0.4248391 0.3567895 0.5247093 0.3617581 0.4248391 0.3567895 0.5268067 0.3567895 0.06959062 0.9206877 0.1664536 0.9206877 0.166909 0.9287449 0.06959062 0.9206877 0.166909 0.9287449 0.06913602 0.9287455 0.001098155 0.9067778 0.06959062 0.9206877 0.06913602 0.9287455 0.001098155 0.9067778 0.06913602 0.9287455 0 0.9147047 0.4110932 0.8483601 0.5079548 0.8487982 0.508372 0.8568571 0.4110932 0.8483601 0.508372 0.8568571 0.4106004 0.8564147 0.3426668 0.8341388 0.4110932 0.8483601 0.4106004 0.8564147 0.3426668 0.8341388 0.4106004 0.8564147 0.3415314 0.8420605 0.9188021 0.09380084 0.92001 0.09406203 0.9200075 0.2261954 0.9188021 0.09380084 0.9200075 0.2261954 0.9187996 0.2264565 0.9385913 0 0.9397218 6.29969e-4 0.92001 0.09406203 0.9385913 0 0.92001 0.09406203 0.9188021 0.09380084 0.8555113 0.6950883 0.856692 0.6954495 0.8451895 0.8271 0.8555113 0.6950883 0.8451895 0.8271 0.8439628 0.8272588 0.9187996 0.2264565 0.9200075 0.2261954 0.9397157 0.3196285 0.9187996 0.2264565 0.9397157 0.3196285 0.9385856 0.3202585 0.8000125 0.6899228 0.7921072 0.6950883 0.7730624 0.5933626 0.8000125 0.6899228 0.7730624 0.5933626 0.7815554 0.591338 0.9058801 0.2423019 0.8974363 0.2445131 0.8974364 0.1012806 0.9058801 0.2423019 0.8974364 0.1012806 0.9058812 0.1034919 0.7847298 0.4525629 0.7763374 0.4501662 0.8000125 0.3493813 0.7344478 0.3441288 0.7074982 0.2475692 0.7159909 0.2455443 0.7815554 0.591338 0.7730624 0.5933626 0.7763374 0.4501662 0.7815554 0.591338 0.7763374 0.4501662 0.7847298 0.4525629 0.3339597 0.4470251 0.3415313 0.4439474 0.3415314 0.5827576 0.3339597 0.4470251 0.3415314 0.5827576 0.3339596 0.5796807 0.2383626 0.3532239 0.2414991 0.3457939 0.3415313 0.4439474 0.2383626 0.3532239 0.3415313 0.4439474 0.3339597 0.4470251 0.2383626 0.6734825 0.2414991 0.6809111 0.1000322 0.6809111 0.2383626 0.6734825 0.1000322 0.6809111 0.1031682 0.6734825 0.3339596 0.5796807 0.3415314 0.5827576 0.2414991 0.6809111 0.3339596 0.5796807 0.2414991 0.6809111 0.2383626 0.6734825 0.3229339 0.9864746 0.2790585 0.9994667 0.2675529 0.904724 0.3229339 0.9864746 0.2675529 0.904724 0.3126289 0.9016057 0.9382384 0.7022342 0.9828751 0.6953492 0.9828755 0.8274825 0.9382384 0.7022342 0.9828755 0.8274825 0.9382377 0.8205963 0.3229321 0.7836759 0.2790534 0.773073 0.306824 0.6816338 0.9005709 0.9088495 0.8451895 0.8271 0.8902666 0.8239807 0.3126289 0.9016057 0.2675529 0.904724 0.2790534 0.773073 0.3126289 0.9016057 0.2790534 0.773073 0.3229321 0.7836759 0.3415313 0.9768904 0.3229339 0.9864746 0.3126289 0.9016057 0.2524628 0.6809112 0.2524628 0.7692167 0.2349458 0.7578399 0.9191702 0.706835 0.9382384 0.7022342 0.9382377 0.8205963 0.9191702 0.706835 0.9382377 0.8205963 0.9191697 0.8159967 0.9191696 0.8992677 0.9005709 0.9088495 0.8902666 0.8239807 0.6101156 0.6093338 0.6101156 0.697638 0.5925983 0.686262 0.3320286 0.8986189 0.3126289 0.9016057 0.3229321 0.7836759 0.3320286 0.8986189 0.3229321 0.7836759 0.3415313 0.7898559 0.526807 0.5983377 0.5314493 0.6093336 0.420198 0.6093338 0.526807 0.5983377 0.420198 0.6093338 0.4248393 0.5983378 0.5989089 0.5275899 0.6101155 0.5321447 0.5314493 0.6093336 0.5989089 0.5275899 0.5314493 0.6093336 0.526807 0.5983377 0.3527372 0.52759 0.3415314 0.5321446 0.3415314 0.4229829 0.3527372 0.52759 0.3415314 0.4229829 0.3527371 0.4275374 0.4248393 0.5983378 0.420198 0.6093338 0.3415314 0.5321446 0.4248393 0.5983378 0.3415314 0.5321446 0.3527372 0.52759 0.5247098 0.5933692 0.526807 0.5983377 0.4248393 0.5983378 0.5247098 0.5933692 0.4248393 0.5983378 0.4269368 0.5933691 0.5938456 0.525532 0.5989089 0.5275899 0.526807 0.5983377 0.5938456 0.525532 0.526807 0.5983377 0.5247098 0.5933692 0.3578011 0.5255319 0.3527372 0.52759 0.3527371 0.4275374 0.3578011 0.5255319 0.3527371 0.4275374 0.357801 0.4295955 0.4269368 0.5933691 0.4248393 0.5983378 0.3527372 0.52759 0.4269368 0.5933691 0.3527372 0.52759 0.3578011 0.5255319 0.8011108 0.3677669 0.8000125 0.3598398 0.8691485 0.3457959 0.8011108 0.3677669 0.8691485 0.3457959 0.8696032 0.3538532 0.7754704 0.9348621 0.7759253 0.9429196 0.6781527 0.9429197 0.7754704 0.9348621 0.6781527 0.9429197 0.678608 0.9348619 0.5765116 0.8351967 0.5775728 0.8431276 0.508372 0.8568571 0.5765116 0.8351967 0.508372 0.8568571 0.5079548 0.8487982 0.8696032 0.3538532 0.8691485 0.3457959 0.9669211 0.3457939 0.8696032 0.3538532 0.9669211 0.3457939 0.9664661 0.3538506 0.2778778 1 0.2663268 0.9048827 0.2675529 0.904724 0.2778778 1 0.2675529 0.904724 0.2790585 0.9994667 0.9840834 0.6950883 0.9840834 0.8277435 0.9828755 0.8274825 0.9840834 0.6950883 0.9828755 0.8274825 0.9828751 0.6953492 0.2778727 0.7727117 0.3057525 0.6809112 0.306824 0.6816338 0.2778727 0.7727117 0.306824 0.6816338 0.2790534 0.773073 0.2663268 0.9048827 0.2778727 0.7727117 0.2790534 0.773073 0.2663268 0.9048827 0.2790534 0.773073 0.2675529 0.904724 0.7763374 0.4501662 0.7730624 0.5933626 0.6101156 0.5897752 0.6101156 0.5897752 0.6133905 0.4465788 0.7763374 0.4501662 0.3524125 0.1012808 0.3524125 0.2445133 0.2491932 0.3457939 0.2491932 0.3457939 0.1032192 0.3457938 0.1277687 0.287622 0.2491932 0.3457939 0.1277687 0.287622 0.2246317 0.2876221 0.2246315 0.05816668 0.2491933 1.45313e-7 0.3524125 0.1012808 0.2931239 0.1253728 0.2246315 0.05816668 0.3524125 0.1012808 0.2491932 0.3457939 0.2246317 0.2876221 0.2931239 0.2204163 0.2931239 0.2204163 0.2931239 0.1253728 0.3524125 0.1012808 0.2491932 0.3457939 0.2931239 0.2204163 0.3524125 0.1012808 0.9187996 1.45313e-7 0.8974364 0.1012806 0.734448 0.1012805 0.734448 0.1012805 0.7558112 0 0.9187996 1.45313e-7 0.7344478 0.003587782 0.7107731 0.1043727 0.5478261 0.1007849 0.5478261 0.1007849 0.571501 0 0.7344478 0.003587782 0.8974364 0.1012806 0.8974363 0.2445131 0.7344478 0.2445129 0.7344478 0.2445129 0.734448 0.1012805 0.8974364 0.1012806 0.8000125 0.3493813 0.7763374 0.4501662 0.6133905 0.4465788 0.6133905 0.4465788 0.6370657 0.3457939 0.8000125 0.3493813 0.5154011 0.1012807 0.5154002 0.2445133 0.3524125 0.2445127 0.3524125 0.2445127 0.3524134 0.1012802 0.5154011 0.1012807 0.8974363 0.2445131 0.9187996 0.3457939 0.7558112 0.3457937 0.7558112 0.3457937 0.7344478 0.2445129 0.8974363 0.2445131 0.7107731 0.1043727 0.7074982 0.2475692 0.5445514 0.2439813 0.5445514 0.2439813 0.5478261 0.1007849 0.7107731 0.1043727 0.1032193 0 0.2491933 1.45313e-7 0.2246315 0.05816668 0.1032193 0 0.2246315 0.05816668 0.1277685 0.05816656 0 0.244513 0 0.1012805 0.1032193 0 0.1277687 0.287622 0.1032192 0.3457938 0 0.244513 0.05927622 0.220416 0.1277687 0.287622 0 0.244513 0.1032193 0 0.1277685 0.05816656 0.05927634 0.1253724 0.05927634 0.1253724 0.05927622 0.220416 0 0.244513 0.05927634 0.1253724 0 0.244513 0.1032193 0</float_array>
          <technique_common>
            <accessor source="#Head_Eye_Sentinel_Head_Ooglid_center-mesh-map-0-array" count="528" stride="2">
              <param name="S" type="float"/>
              <param name="T" type="float"/>
            </accessor>
          </technique_common>
        </source>
        <vertices id="Head_Eye_Sentinel_Head_Ooglid_center-mesh-vertices">
          <input semantic="POSITION" source="#Head_Eye_Sentinel_Head_Ooglid_center-mesh-positions"/>
        </vertices>
        <triangles material="Material_001-material" count="176">
          <input semantic="VERTEX" source="#Head_Eye_Sentinel_Head_Ooglid_center-mesh-vertices" offset="0"/>
          <input semantic="NORMAL" source="#Head_Eye_Sentinel_Head_Ooglid_center-mesh-normals" offset="1"/>
          <input semantic="TEXCOORD" source="#Head_Eye_Sentinel_Head_Ooglid_center-mesh-map-0" offset="2" set="0"/>
          <p>0 0 0 1 0 1 2 0 2 2 1 3 3 1 4 0 1 5 4 2 6 5 2 7 6 2 8 6 3 9 7 3 10 4 3 11 8 4 12 9 4 13 5 4 14 5 5 15 4 5 16 8 5 17 10 6 18 11 6 19 3 6 20 3 7 21 2 7 22 10 7 23 1 8 24 0 8 25 9 8 26 9 9 27 8 9 28 1 9 29 7 10 30 6 10 31 12 10 32 12 11 33 13 11 34 7 11 35 14 12 36 15 12 37 11 12 38 11 13 39 10 13 40 14 13 41 13 14 42 12 14 43 15 14 44 15 15 45 14 15 46 13 15 47 16 16 48 17 16 49 18 16 50 16 17 51 18 17 52 19 17 53 20 18 54 16 18 55 19 18 56 20 19 57 19 19 58 21 19 59 22 20 60 23 20 61 24 20 62 22 21 63 24 21 64 25 21 65 17 22 66 22 22 67 25 22 68 17 23 69 25 23 70 18 23 71 26 24 72 27 24 73 17 24 74 26 25 75 17 25 76 16 25 77 28 26 78 26 26 79 16 26 80 28 27 81 16 27 82 20 27 83 29 28 84 30 28 85 23 28 86 29 29 87 23 29 88 22 29 89 27 30 90 29 30 91 22 30 92 27 31 93 22 31 94 17 31 95 31 32 96 32 32 97 33 32 98 31 33 99 33 33 100 34 33 101 35 34 102 31 34 103 34 34 104 35 35 105 34 35 106 36 35 107 37 36 108 38 36 109 39 36 110 37 37 111 39 37 112 40 37 113 32 38 114 37 38 115 40 38 116 32 39 117 40 39 118 33 39 119 41 40 120 42 40 121 32 40 122 41 41 123 32 41 124 31 41 125 43 42 126 41 42 127 31 42 128 43 43 129 31 43 130 35 43 131 44 44 132 45 44 133 38 44 134 44 45 135 38 45 136 37 45 137 42 46 138 44 46 139 37 46 140 42 47 141 37 47 142 32 47 143 46 48 144 47 48 145 42 48 146 46 49 147 42 49 148 41 49 149 48 50 150 46 50 151 41 50 152 48 51 153 41 51 154 43 51 155 49 52 156 50 52 157 45 52 158 49 53 159 45 53 160 44 53 161 47 54 162 49 54 163 44 54 164 47 55 165 44 55 166 42 55 167 51 56 168 52 56 169 47 56 170 51 57 171 47 57 172 46 57 173 53 58 174 51 58 175 46 58 176 53 59 177 46 59 178 48 59 179 54 60 180 55 60 181 50 60 182 54 61 183 50 61 184 49 61 185 52 62 186 54 62 187 49 62 188 52 63 189 49 63 190 47 63 191 1 64 192 8 64 193 52 64 194 1 65 195 52 65 196 51 65 197 2 66 198 1 66 199 51 66 200 2 67 201 51 67 202 53 67 203 4 68 204 7 68 205 55 68 206 4 69 207 55 69 208 54 69 209 8 70 210 4 70 211 54 70 212 8 71 213 54 71 214 52 71 215 26 72 216 34 72 217 33 72 218 26 73 219 33 73 220 27 73 221 28 74 222 36 74 223 34 74 224 28 75 225 34 75 226 26 75 227 29 76 228 40 76 229 39 76 230 29 77 231 39 77 232 30 77 233 27 78 234 33 78 235 40 78 236 27 79 237 40 79 238 29 79 239 56 80 240 57 80 241 58 80 242 56 81 243 58 81 244 59 81 245 20 82 246 21 82 247 57 82 248 20 83 249 57 83 250 56 83 251 60 84 252 61 84 253 24 84 254 60 85 255 24 85 256 23 85 257 59 86 258 58 86 259 61 86 260 59 87 261 61 87 262 60 87 263 62 88 264 56 88 265 59 88 266 62 89 267 59 89 268 63 89 269 28 90 270 20 90 271 56 90 272 28 91 273 56 91 274 62 91 275 64 92 276 60 92 277 23 92 278 64 93 279 23 93 280 30 93 281 63 94 282 59 94 283 60 94 284 63 95 285 60 95 286 64 95 287 65 96 288 66 96 289 67 96 290 65 97 291 67 97 292 68 97 293 35 98 294 36 98 295 66 98 296 35 99 297 66 99 298 65 99 299 69 100 300 70 100 301 39 100 302 69 101 303 39 101 304 38 101 305 68 102 306 67 102 307 70 102 308 68 103 309 70 103 310 69 103 311 71 104 312 65 104 313 68 104 314 71 105 315 68 105 316 72 105 317 43 106 318 35 106 319 65 106 320 43 107 321 65 107 322 71 107 323 73 108 324 69 108 325 38 108 326 73 109 327 38 109 328 45 109 329 72 110 330 68 110 331 69 110 332 72 111 333 69 111 334 73 111 335 74 112 336 71 112 337 72 112 338 74 113 339 72 113 340 75 113 341 48 114 342 43 114 343 71 114 344 48 115 345 71 115 346 74 115 347 76 116 348 73 116 349 45 116 350 76 117 351 45 117 352 50 117 353 75 118 354 72 118 355 73 118 356 75 119 357 73 119 358 76 119 359 77 120 360 74 120 361 75 120 362 77 121 363 75 121 364 78 121 365 53 122 366 48 122 367 74 122 368 53 123 369 74 123 370 77 123 371 79 124 372 76 124 373 50 124 374 79 125 375 50 125 376 55 125 377 78 126 378 75 126 379 76 126 380 78 127 381 76 127 382 79 127 383 10 128 384 77 128 385 78 128 386 10 129 387 78 129 388 14 129 389 2 130 390 53 130 391 77 130 392 2 131 393 77 131 394 10 131 395 13 132 396 79 132 397 55 132 398 13 133 399 55 133 400 7 133 401 14 134 402 78 134 403 79 134 404 14 135 405 79 135 406 13 135 407 62 136 408 63 136 409 67 136 410 62 137 411 67 137 412 66 137 413 28 138 414 62 138 415 66 138 416 28 139 417 66 139 418 36 139 419 64 140 420 30 140 421 39 140 422 64 141 423 39 141 424 70 141 425 63 142 426 64 142 427 70 142 428 63 143 429 70 143 430 67 143 431 61 144 432 58 144 433 80 144 434 80 145 435 81 145 436 61 145 437 82 146 438 83 146 439 84 146 440 84 147 441 85 147 442 9 147 443 84 148 444 9 148 445 0 148 446 15 149 447 80 149 448 82 149 449 11 150 450 15 150 451 82 150 452 84 151 453 0 151 454 3 151 455 3 152 456 11 152 457 82 152 458 84 153 459 3 153 460 82 153 461 58 154 462 57 154 463 82 154 464 82 155 465 80 155 466 58 155 467 18 156 468 25 156 469 86 156 470 86 157 471 85 157 472 18 157 473 57 158 474 21 158 475 83 158 476 83 159 477 82 159 478 57 159 479 24 160 480 61 160 481 81 160 482 81 161 483 87 161 484 24 161 485 19 162 486 18 162 487 85 162 488 85 163 489 84 163 490 19 163 491 21 164 492 19 164 493 84 164 494 84 165 495 83 165 496 21 165 497 25 166 498 24 166 499 87 166 500 87 167 501 86 167 502 25 167 503 81 168 504 80 168 505 15 168 506 81 169 507 15 169 508 12 169 509 86 146 510 87 146 511 81 146 512 9 170 513 85 170 514 86 170 515 5 171 516 9 171 517 86 171 518 81 172 519 12 172 520 6 172 521 6 173 522 5 173 523 86 173 524 6 174 525 86 174 526 81 174 527</p>
        </triangles>
      </mesh>
    </geometry>
  </library_geometries>
  <library_controllers/>
  <library_visual_scenes>
    <visual_scene id="Scene" name="Scene">
      <node id="Head_Eye_Sentinel_Head_Ooglid_center" name="Head_Eye_Sentinel_Head_Ooglid_center" type="NODE">
        <matrix sid="transform">1 0 0 0 0 1 0 0 0 0 1 0 0 0 0 1</matrix>
        <instance_geometry url="#Head_Eye_Sentinel_Head_Ooglid_center-mesh" name="Head_Eye_Sentinel_Head_Ooglid_center">
          <bind_material>
            <technique_common>
              <instance_material symbol="Material_001-material" target="#Material_001-material"/>
            </technique_common>
          </bind_material>
        </instance_geometry>
      </node>
    </visual_scene>
  </library_visual_scenes>
  <scene>
    <instance_visual_scene url="#Scene"/>
  </scene>
</COLLADA>